## Interface: 11304
## Notes: GatherMate2 data fetched from Wowhead
## Title: GatherMate2Data
## Author: kagaro, Xinhuan, Spinx, Marrtin
## Version: v2020-06-10
## LoadOnDemand: 1
## Dependencies: GatherMate2

MiningData.lua
HerbalismData.lua
FishData.lua
TreasureData.lua
GatherMateData.lua
